Threads,Steps,Difference,Serial Time, P1 Time, P2 Time
1,1000,0.00203719,5.52187e-06,8.67375e-05,2.35986e-05
2,1000,0.00203719,5.95971e-06,0.000275342,5.1379e-05
3,1000,0.00203719,5.98328e-06,0.00400671,7.40618e-05
5,1000,0.00203719,6.10164e-06,0.00033568,0.000525301
10,1000,0.00203719,6.12923e-06,0.000745102,0.000151956
20,1000,0.00203719,5.97877e-06,0.000651601,0.000116794
30,1000,0.00203719,5.96372e-06,0.000629548,6.98695e-05
40,1000,0.00203719,5.97475e-06,0.000614739,9.44451e-05
50,1000,0.00203719,5.97074e-06,0.000697874,0.000157551
1,10000,0.000201176,5.95504e-05,6.25381e-05,0.0001167
2,10000,0.000201176,6.09342e-05,0.000108102,0.000302033
3,10000,0.000201176,6.01267e-05,0.00191496,0.000380276
5,10000,0.000201176,6.01623e-05,9.92874e-05,0.000675986
10,10000,0.000201176,6.01362e-05,0.000316587,0.000953745
20,10000,0.000201176,5.9562e-05,0.000705854,0.00080171
30,10000,0.000201176,6.34388e-05,0.000841744,0.00107273
40,10000,0.000201176,5.95645e-05,0.000856303,0.000985591
50,10000,0.000201176,5.97104e-05,0.00106643,0.000766198
1,100000,2.00371e-05,0.000597425,0.000603466,0.00117856
2,100000,2.00371e-05,0.000630502,0.000506116,0.00512759
3,100000,2.00371e-05,0.000600838,0.000292407,0.00383311
5,100000,2.00371e-05,0.000609925,0.000290324,0.00646274
10,100000,2.00371e-05,0.000622463,0.000635286,0.00802218
20,100000,2.00371e-05,0.000568127,0.00106399,0.00918751
30,100000,2.00371e-05,0.000602819,0.00109462,0.0098014
40,100000,2.00371e-05,0.00061612,0.00218058,0.0089056
50,100000,2.00371e-05,0.00060553,0.00586938,0.00504741
1,1000000,2.00109e-06,0.00633415,0.0061251,0.0142527
2,1000000,2.00109e-06,0.00677371,0.00358369,0.0430291
3,1000000,2.00109e-06,0.00617574,0.00323861,0.0627396
5,1000000,2.00109e-06,0.00603089,0.00211334,0.0784821
10,1000000,2.00109e-06,0.00756575,0.00240048,0.0825743
20,1000000,2.00109e-06,0.00604636,0.00209072,0.0965863
30,1000000,2.00109e-06,0.00612265,0.0020868,0.0836811
40,1000000,2.00109e-06,0.00616176,0.00277632,0.0874986
50,1000000,2.00109e-06,0.0061154,0.00214357,0.0980542
1,10000000,1.99948e-07,0.0604407,0.0606147,0.140977
2,10000000,1.99948e-07,0.0771608,0.0358846,0.431056
3,10000000,1.99948e-07,0.0640826,0.0206012,0.674652
5,10000000,1.99948e-07,0.0604409,0.0170604,0.890145
10,10000000,1.99948e-07,0.060675,0.0178667,0.968299
20,10000000,1.99948e-07,0.0611049,0.0143413,1.01611
30,10000000,1.99948e-07,0.0595351,0.0129528,1.00566
40,10000000,1.99948e-07,0.0661821,0.0133752,0.998434
50,10000000,1.99948e-07,0.0621454,0.0125169,1.02638
1,100000000,1.99108e-08,0.577528,0.580011,1.11013
2,100000000,1.99108e-08,0.590278,0.301659,4.09668
3,100000000,1.99108e-08,0.58738,0.199819,7.50825
5,100000000,1.99108e-08,0.592374,0.136075,10.0734
10,100000000,1.99108e-08,0.598071,0.121562,11.3248
20,100000000,1.99108e-08,0.59843,0.112469,10.1964
30,100000000,1.99108e-08,0.694351,0.109597,10.4351
40,100000000,1.99108e-08,0.74156,0.111169,9.01525
50,100000000,1.99108e-08,1.43932,0.20794,10.1531
1,1000000000,1.91034e-09,7.65057,6.32571,12.1221
2,1000000000,1.91034e-09,6.06009,3.01985,42.0669
3,1000000000,1.91034e-09,5.97456,2.193,75.2543
5,1000000000,1.91034e-09,6.97249,1.81626,98.5593
10,1000000000,1.91034e-09,6.16479,1.50457,101.221
20,1000000000,1.91034e-09,6.65603,1.37303,107.2
30,1000000000,1.91034e-09,6.42115,1.38083,111.117
40,1000000000,1.91034e-09,5.93324,0.939482,113.209
50,1000000000,1.91034e-09,6.36429,1.30199,113.86
1,1410065408,1.32865e-09,8.22842,8.22474,15.7674
2,1410065408,1.32865e-09,8.17329,4.11381,64.6423
3,1410065408,1.32865e-09,8.24436,2.79982,108.157
5,1410065408,1.32865e-09,8.18483,1.85595,144.31
10,1410065408,1.32865e-09,8.18633,1.4142,159.63
20,1410065408,1.32865e-09,8.69012,2.02698,130.71
30,1410065408,1.32865e-09,9.72637,2.23205,131.998
40,1410065408,1.32865e-09,9.35854,2.26572,132.08
50,1410065408,1.32865e-09,9.25847,2.10072,142.709
1,1215752192,1.55543e-09,7.90151,7.83133,14.771
2,1215752192,1.55543e-09,7.66255,4.17812,48.5991
3,1215752192,1.55543e-09,7.6904,2.95075,78.2998
5,1215752192,1.55543e-09,7.71669,2.18887,99.2811
10,1215752192,1.55543e-09,7.73177,1.91317,108.231
20,1215752192,1.55543e-09,7.74544,1.81395,111.525
30,1215752192,1.55543e-09,8.02618,2.3779,139.126
40,1215752192,1.55543e-09,7.13917,1.16998,140.063
50,1215752192,1.55543e-09,7.12412,1.15742,139.569
